('/home/desktop/tmp/gl/target/PyInstaller/WebGL/PKG-00.pkg',
 {'BINARY': 1,
  'DATA': 1,
  'EXECUTABLE': 1,
  'EXTENSION': 1,
  'PYMODULE': 1,
  'PYSOURCE': 1,
  'PYZ': 0},
 [('PYZ-00.pyz',
   '/home/desktop/tmp/gl/target/PyInstaller/WebGL/PYZ-00.pyz',
   'PYZ'),
  ('_struct',
   '/home/desktop/tmp/gl/lib/python3.6/lib-dynload/_struct.cpython-36m-x86_64-linux-gnu.so',
   'EXTENSION'),
  ('zlib',
   '/home/desktop/tmp/gl/lib/python3.6/lib-dynload/zlib.cpython-36m-x86_64-linux-gnu.so',
   'EXTENSION'),
  ('struct', '/home/desktop/tmp/gl/lib/python3.6/struct.pyo', 'PYMODULE'),
  ('pyimod01_os_path',
   '/home/desktop/tmp/gl/lib/python3.6/site-packages/PyInstaller/loader/pyimod01_os_path.pyc',
   'PYMODULE'),
  ('pyimod02_archive',
   '/home/desktop/tmp/gl/lib/python3.6/site-packages/PyInstaller/loader/pyimod02_archive.pyc',
   'PYMODULE'),
  ('pyimod03_importers',
   '/home/desktop/tmp/gl/lib/python3.6/site-packages/PyInstaller/loader/pyimod03_importers.pyc',
   'PYMODULE'),
  ('pyiboot01_bootstrap',
   '/home/desktop/tmp/gl/lib/python3.6/site-packages/PyInstaller/loader/pyiboot01_bootstrap.py',
   'PYSOURCE'),
  ('fbs_pyinstaller_hook',
   '/tmp/tmp_7t_oegn/fbs_pyinstaller_hook.py',
   'PYSOURCE'),
  ('pyi_rth_pyqt5webengine',
   '/home/desktop/tmp/gl/lib/python3.6/site-packages/PyInstaller/loader/rthooks/pyi_rth_pyqt5webengine.py',
   'PYSOURCE'),
  ('pyi_rth_pyqt5',
   '/home/desktop/tmp/gl/lib/python3.6/site-packages/PyInstaller/loader/rthooks/pyi_rth_pyqt5.py',
   'PYSOURCE'),
  ('main', '/home/desktop/tmp/gl/src/main/python/main.py', 'PYSOURCE')],
 True,
 False,
 False,
 [])
