('/home/desktop/tmp/gl/target/PyInstaller/WebGL/PYZ-00.pyz',
 [('posixpath', '/home/desktop/tmp/gl/lib/python3.6/posixpath.py', 'PYMODULE'),
  ('_strptime',
   '/home/desktop/opt/python-3.6.8/lib/python3.6/_strptime.py',
   'PYMODULE'),
  ('datetime',
   '/home/desktop/opt/python-3.6.8/lib/python3.6/datetime.py',
   'PYMODULE'),
  ('fnmatch', '/home/desktop/tmp/gl/lib/python3.6/fnmatch.py', 'PYMODULE'),
  ('_compat_pickle',
   '/home/desktop/opt/python-3.6.8/lib/python3.6/_compat_pickle.py',
   'PYMODULE'),
  ('__future__',
   '/home/desktop/tmp/gl/lib/python3.6/__future__.py',
   'PYMODULE'),
  ('difflib',
   '/home/desktop/opt/python-3.6.8/lib/python3.6/difflib.py',
   'PYMODULE'),
  ('ast', '/home/desktop/opt/python-3.6.8/lib/python3.6/ast.py', 'PYMODULE'),
  ('inspect',
   '/home/desktop/opt/python-3.6.8/lib/python3.6/inspect.py',
   'PYMODULE'),
  ('cmd', '/home/desktop/opt/python-3.6.8/lib/python3.6/cmd.py', 'PYMODULE'),
  ('bdb', '/home/desktop/opt/python-3.6.8/lib/python3.6/bdb.py', 'PYMODULE'),
  ('opcode',
   '/home/desktop/opt/python-3.6.8/lib/python3.6/opcode.py',
   'PYMODULE'),
  ('dis', '/home/desktop/opt/python-3.6.8/lib/python3.6/dis.py', 'PYMODULE'),
  ('codeop',
   '/home/desktop/opt/python-3.6.8/lib/python3.6/codeop.py',
   'PYMODULE'),
  ('code', '/home/desktop/opt/python-3.6.8/lib/python3.6/code.py', 'PYMODULE'),
  ('glob', '/home/desktop/opt/python-3.6.8/lib/python3.6/glob.py', 'PYMODULE'),
  ('shlex',
   '/home/desktop/opt/python-3.6.8/lib/python3.6/shlex.py',
   'PYMODULE'),
  ('importlib._bootstrap',
   '/home/desktop/tmp/gl/lib/python3.6/importlib/_bootstrap.py',
   'PYMODULE'),
  ('importlib._bootstrap_external',
   '/home/desktop/tmp/gl/lib/python3.6/importlib/_bootstrap_external.py',
   'PYMODULE'),
  ('importlib.machinery',
   '/home/desktop/tmp/gl/lib/python3.6/importlib/machinery.py',
   'PYMODULE'),
  ('importlib.util',
   '/home/desktop/tmp/gl/lib/python3.6/importlib/util.py',
   'PYMODULE'),
  ('importlib.abc',
   '/home/desktop/tmp/gl/lib/python3.6/importlib/abc.py',
   'PYMODULE'),
  ('importlib',
   '/home/desktop/tmp/gl/lib/python3.6/importlib/__init__.py',
   'PYMODULE'),
  ('pkgutil',
   '/home/desktop/opt/python-3.6.8/lib/python3.6/pkgutil.py',
   'PYMODULE'),
  ('xml',
   '/home/desktop/opt/python-3.6.8/lib/python3.6/xml/__init__.py',
   'PYMODULE'),
  ('xml.sax.expatreader',
   '/home/desktop/opt/python-3.6.8/lib/python3.6/xml/sax/expatreader.py',
   'PYMODULE'),
  ('xml.sax.saxutils',
   '/home/desktop/opt/python-3.6.8/lib/python3.6/xml/sax/saxutils.py',
   'PYMODULE'),
  ('urllib.request',
   '/home/desktop/opt/python-3.6.8/lib/python3.6/urllib/request.py',
   'PYMODULE'),
  ('getpass',
   '/home/desktop/opt/python-3.6.8/lib/python3.6/getpass.py',
   'PYMODULE'),
  ('nturl2path',
   '/home/desktop/opt/python-3.6.8/lib/python3.6/nturl2path.py',
   'PYMODULE'),
  ('ftplib',
   '/home/desktop/opt/python-3.6.8/lib/python3.6/ftplib.py',
   'PYMODULE'),
  ('netrc',
   '/home/desktop/opt/python-3.6.8/lib/python3.6/netrc.py',
   'PYMODULE'),
  ('http.cookiejar',
   '/home/desktop/opt/python-3.6.8/lib/python3.6/http/cookiejar.py',
   'PYMODULE'),
  ('urllib.response',
   '/home/desktop/opt/python-3.6.8/lib/python3.6/urllib/response.py',
   'PYMODULE'),
  ('urllib.error',
   '/home/desktop/opt/python-3.6.8/lib/python3.6/urllib/error.py',
   'PYMODULE'),
  ('xml.sax',
   '/home/desktop/opt/python-3.6.8/lib/python3.6/xml/sax/__init__.py',
   'PYMODULE'),
  ('xml.sax.handler',
   '/home/desktop/opt/python-3.6.8/lib/python3.6/xml/sax/handler.py',
   'PYMODULE'),
  ('xml.sax._exceptions',
   '/home/desktop/opt/python-3.6.8/lib/python3.6/xml/sax/_exceptions.py',
   'PYMODULE'),
  ('xml.sax.xmlreader',
   '/home/desktop/opt/python-3.6.8/lib/python3.6/xml/sax/xmlreader.py',
   'PYMODULE'),
  ('xml.parsers',
   '/home/desktop/opt/python-3.6.8/lib/python3.6/xml/parsers/__init__.py',
   'PYMODULE'),
  ('xml.parsers.expat',
   '/home/desktop/opt/python-3.6.8/lib/python3.6/xml/parsers/expat.py',
   'PYMODULE'),
  ('plistlib',
   '/home/desktop/opt/python-3.6.8/lib/python3.6/plistlib.py',
   'PYMODULE'),
  ('platform',
   '/home/desktop/opt/python-3.6.8/lib/python3.6/platform.py',
   'PYMODULE'),
  ('token', '/home/desktop/tmp/gl/lib/python3.6/token.py', 'PYMODULE'),
  ('tokenize', '/home/desktop/tmp/gl/lib/python3.6/tokenize.py', 'PYMODULE'),
  ('urllib.parse',
   '/home/desktop/opt/python-3.6.8/lib/python3.6/urllib/parse.py',
   'PYMODULE'),
  ('tempfile', '/home/desktop/tmp/gl/lib/python3.6/tempfile.py', 'PYMODULE'),
  ('tty', '/home/desktop/opt/python-3.6.8/lib/python3.6/tty.py', 'PYMODULE'),
  ('pydoc_data',
   '/home/desktop/opt/python-3.6.8/lib/python3.6/pydoc_data/__init__.py',
   'PYMODULE'),
  ('pydoc_data.topics',
   '/home/desktop/opt/python-3.6.8/lib/python3.6/pydoc_data/topics.py',
   'PYMODULE'),
  ('html.entities',
   '/home/desktop/opt/python-3.6.8/lib/python3.6/html/entities.py',
   'PYMODULE'),
  ('html',
   '/home/desktop/opt/python-3.6.8/lib/python3.6/html/__init__.py',
   'PYMODULE'),
  ('ipaddress',
   '/home/desktop/opt/python-3.6.8/lib/python3.6/ipaddress.py',
   'PYMODULE'),
  ('ssl', '/home/desktop/opt/python-3.6.8/lib/python3.6/ssl.py', 'PYMODULE'),
  ('http.client',
   '/home/desktop/opt/python-3.6.8/lib/python3.6/http/client.py',
   'PYMODULE'),
  ('mimetypes',
   '/home/desktop/opt/python-3.6.8/lib/python3.6/mimetypes.py',
   'PYMODULE'),
  ('socketserver',
   '/home/desktop/opt/python-3.6.8/lib/python3.6/socketserver.py',
   'PYMODULE'),
  ('http',
   '/home/desktop/opt/python-3.6.8/lib/python3.6/http/__init__.py',
   'PYMODULE'),
  ('http.server',
   '/home/desktop/opt/python-3.6.8/lib/python3.6/http/server.py',
   'PYMODULE'),
  ('optparse',
   '/home/desktop/opt/python-3.6.8/lib/python3.6/optparse.py',
   'PYMODULE'),
  ('uu', '/home/desktop/opt/python-3.6.8/lib/python3.6/uu.py', 'PYMODULE'),
  ('email.feedparser',
   '/home/desktop/opt/python-3.6.8/lib/python3.6/email/feedparser.py',
   'PYMODULE'),
  ('email.parser',
   '/home/desktop/opt/python-3.6.8/lib/python3.6/email/parser.py',
   'PYMODULE'),
  ('email',
   '/home/desktop/opt/python-3.6.8/lib/python3.6/email/__init__.py',
   'PYMODULE'),
  ('calendar',
   '/home/desktop/opt/python-3.6.8/lib/python3.6/calendar.py',
   'PYMODULE'),
  ('email._parseaddr',
   '/home/desktop/opt/python-3.6.8/lib/python3.6/email/_parseaddr.py',
   'PYMODULE'),
  ('email.utils',
   '/home/desktop/opt/python-3.6.8/lib/python3.6/email/utils.py',
   'PYMODULE'),
  ('email.errors',
   '/home/desktop/opt/python-3.6.8/lib/python3.6/email/errors.py',
   'PYMODULE'),
  ('email.header',
   '/home/desktop/opt/python-3.6.8/lib/python3.6/email/header.py',
   'PYMODULE'),
  ('email._policybase',
   '/home/desktop/opt/python-3.6.8/lib/python3.6/email/_policybase.py',
   'PYMODULE'),
  ('email.base64mime',
   '/home/desktop/opt/python-3.6.8/lib/python3.6/email/base64mime.py',
   'PYMODULE'),
  ('email.encoders',
   '/home/desktop/opt/python-3.6.8/lib/python3.6/email/encoders.py',
   'PYMODULE'),
  ('email.charset',
   '/home/desktop/opt/python-3.6.8/lib/python3.6/email/charset.py',
   'PYMODULE'),
  ('email._encoded_words',
   '/home/desktop/opt/python-3.6.8/lib/python3.6/email/_encoded_words.py',
   'PYMODULE'),
  ('hashlib', '/home/desktop/tmp/gl/lib/python3.6/hashlib.py', 'PYMODULE'),
  ('bisect', '/home/desktop/tmp/gl/lib/python3.6/bisect.py', 'PYMODULE'),
  ('random', '/home/desktop/tmp/gl/lib/python3.6/random.py', 'PYMODULE'),
  ('email.generator',
   '/home/desktop/opt/python-3.6.8/lib/python3.6/email/generator.py',
   'PYMODULE'),
  ('email.iterators',
   '/home/desktop/opt/python-3.6.8/lib/python3.6/email/iterators.py',
   'PYMODULE'),
  ('urllib',
   '/home/desktop/opt/python-3.6.8/lib/python3.6/urllib/__init__.py',
   'PYMODULE'),
  ('email._header_value_parser',
   '/home/desktop/opt/python-3.6.8/lib/python3.6/email/_header_value_parser.py',
   'PYMODULE'),
  ('email.headerregistry',
   '/home/desktop/opt/python-3.6.8/lib/python3.6/email/headerregistry.py',
   'PYMODULE'),
  ('email.quoprimime',
   '/home/desktop/opt/python-3.6.8/lib/python3.6/email/quoprimime.py',
   'PYMODULE'),
  ('email.contentmanager',
   '/home/desktop/opt/python-3.6.8/lib/python3.6/email/contentmanager.py',
   'PYMODULE'),
  ('email.policy',
   '/home/desktop/opt/python-3.6.8/lib/python3.6/email/policy.py',
   'PYMODULE'),
  ('email.message',
   '/home/desktop/opt/python-3.6.8/lib/python3.6/email/message.py',
   'PYMODULE'),
  ('lzma', '/home/desktop/opt/python-3.6.8/lib/python3.6/lzma.py', 'PYMODULE'),
  ('gzip', '/home/desktop/opt/python-3.6.8/lib/python3.6/gzip.py', 'PYMODULE'),
  ('tarfile', '/home/desktop/tmp/gl/lib/python3.6/tarfile.py', 'PYMODULE'),
  ('py_compile',
   '/home/desktop/opt/python-3.6.8/lib/python3.6/py_compile.py',
   'PYMODULE'),
  ('zipfile',
   '/home/desktop/opt/python-3.6.8/lib/python3.6/zipfile.py',
   'PYMODULE'),
  ('shutil', '/home/desktop/tmp/gl/lib/python3.6/shutil.py', 'PYMODULE'),
  ('socket',
   '/home/desktop/opt/python-3.6.8/lib/python3.6/socket.py',
   'PYMODULE'),
  ('webbrowser',
   '/home/desktop/opt/python-3.6.8/lib/python3.6/webbrowser.py',
   'PYMODULE'),
  ('pydoc',
   '/home/desktop/opt/python-3.6.8/lib/python3.6/pydoc.py',
   'PYMODULE'),
  ('pdb', '/home/desktop/opt/python-3.6.8/lib/python3.6/pdb.py', 'PYMODULE'),
  ('unittest.util',
   '/home/desktop/opt/python-3.6.8/lib/python3.6/unittest/util.py',
   'PYMODULE'),
  ('unittest.result',
   '/home/desktop/opt/python-3.6.8/lib/python3.6/unittest/result.py',
   'PYMODULE'),
  ('logging',
   '/home/desktop/opt/python-3.6.8/lib/python3.6/logging/__init__.py',
   'PYMODULE'),
  ('unittest.case',
   '/home/desktop/opt/python-3.6.8/lib/python3.6/unittest/case.py',
   'PYMODULE'),
  ('unittest.suite',
   '/home/desktop/opt/python-3.6.8/lib/python3.6/unittest/suite.py',
   'PYMODULE'),
  ('unittest.loader',
   '/home/desktop/opt/python-3.6.8/lib/python3.6/unittest/loader.py',
   'PYMODULE'),
  ('unittest.runner',
   '/home/desktop/opt/python-3.6.8/lib/python3.6/unittest/runner.py',
   'PYMODULE'),
  ('unittest.main',
   '/home/desktop/opt/python-3.6.8/lib/python3.6/unittest/main.py',
   'PYMODULE'),
  ('unittest.signals',
   '/home/desktop/opt/python-3.6.8/lib/python3.6/unittest/signals.py',
   'PYMODULE'),
  ('unittest',
   '/home/desktop/opt/python-3.6.8/lib/python3.6/unittest/__init__.py',
   'PYMODULE'),
  ('doctest',
   '/home/desktop/opt/python-3.6.8/lib/python3.6/doctest.py',
   'PYMODULE'),
  ('textwrap',
   '/home/desktop/opt/python-3.6.8/lib/python3.6/textwrap.py',
   'PYMODULE'),
  ('argparse',
   '/home/desktop/opt/python-3.6.8/lib/python3.6/argparse.py',
   'PYMODULE'),
  ('pprint',
   '/home/desktop/opt/python-3.6.8/lib/python3.6/pprint.py',
   'PYMODULE'),
  ('pickle',
   '/home/desktop/opt/python-3.6.8/lib/python3.6/pickle.py',
   'PYMODULE'),
  ('tracemalloc',
   '/home/desktop/opt/python-3.6.8/lib/python3.6/tracemalloc.py',
   'PYMODULE'),
  ('base64', '/home/desktop/tmp/gl/lib/python3.6/base64.py', 'PYMODULE'),
  ('stringprep',
   '/home/desktop/opt/python-3.6.8/lib/python3.6/stringprep.py',
   'PYMODULE'),
  ('_compression',
   '/home/desktop/opt/python-3.6.8/lib/python3.6/_compression.py',
   'PYMODULE'),
  ('bz2', '/home/desktop/opt/python-3.6.8/lib/python3.6/bz2.py', 'PYMODULE'),
  ('stat', '/home/desktop/tmp/gl/lib/python3.6/stat.py', 'PYMODULE'),
  ('genericpath',
   '/home/desktop/tmp/gl/lib/python3.6/genericpath.py',
   'PYMODULE'),
  ('string',
   '/home/desktop/opt/python-3.6.8/lib/python3.6/string.py',
   'PYMODULE'),
  ('ntpath', '/home/desktop/tmp/gl/lib/python3.6/ntpath.py', 'PYMODULE'),
  ('signal',
   '/home/desktop/opt/python-3.6.8/lib/python3.6/signal.py',
   'PYMODULE'),
  ('contextlib',
   '/home/desktop/opt/python-3.6.8/lib/python3.6/contextlib.py',
   'PYMODULE'),
  ('_threading_local',
   '/home/desktop/opt/python-3.6.8/lib/python3.6/_threading_local.py',
   'PYMODULE'),
  ('threading',
   '/home/desktop/opt/python-3.6.8/lib/python3.6/threading.py',
   'PYMODULE'),
  ('selectors',
   '/home/desktop/opt/python-3.6.8/lib/python3.6/selectors.py',
   'PYMODULE'),
  ('_dummy_thread',
   '/home/desktop/tmp/gl/lib/python3.6/_dummy_thread.py',
   'PYMODULE'),
  ('dummy_threading',
   '/home/desktop/opt/python-3.6.8/lib/python3.6/dummy_threading.py',
   'PYMODULE'),
  ('subprocess',
   '/home/desktop/opt/python-3.6.8/lib/python3.6/subprocess.py',
   'PYMODULE'),
  ('copy', '/home/desktop/tmp/gl/lib/python3.6/copy.py', 'PYMODULE'),
  ('struct', '/home/desktop/tmp/gl/lib/python3.6/struct.py', 'PYMODULE'),
  ('gettext',
   '/home/desktop/opt/python-3.6.8/lib/python3.6/gettext.py',
   'PYMODULE'),
  ('getopt',
   '/home/desktop/opt/python-3.6.8/lib/python3.6/getopt.py',
   'PYMODULE'),
  ('quopri',
   '/home/desktop/opt/python-3.6.8/lib/python3.6/quopri.py',
   'PYMODULE'),
  ('fbs_runtime.application_context.PyQt5',
   '/home/desktop/tmp/gl/lib/python3.6/site-packages/fbs_runtime/application_context/PyQt5.py',
   'PYMODULE'),
  ('fbs_runtime.application_context',
   '/home/desktop/tmp/gl/lib/python3.6/site-packages/fbs_runtime/application_context/__init__.py',
   'PYMODULE'),
  ('fbs_runtime.licensing',
   '/home/desktop/tmp/gl/lib/python3.6/site-packages/fbs_runtime/licensing.py',
   'PYMODULE'),
  ('json',
   '/home/desktop/opt/python-3.6.8/lib/python3.6/json/__init__.py',
   'PYMODULE'),
  ('json.encoder',
   '/home/desktop/opt/python-3.6.8/lib/python3.6/json/encoder.py',
   'PYMODULE'),
  ('json.decoder',
   '/home/desktop/opt/python-3.6.8/lib/python3.6/json/decoder.py',
   'PYMODULE'),
  ('json.scanner',
   '/home/desktop/opt/python-3.6.8/lib/python3.6/json/scanner.py',
   'PYMODULE'),
  ('fbs_runtime.platform',
   '/home/desktop/tmp/gl/lib/python3.6/site-packages/fbs_runtime/platform.py',
   'PYMODULE'),
  ('fbs_runtime.excepthook',
   '/home/desktop/tmp/gl/lib/python3.6/site-packages/fbs_runtime/excepthook/__init__.py',
   'PYMODULE'),
  ('fbs_runtime._signal',
   '/home/desktop/tmp/gl/lib/python3.6/site-packages/fbs_runtime/_signal.py',
   'PYMODULE'),
  ('fbs_runtime._resources',
   '/home/desktop/tmp/gl/lib/python3.6/site-packages/fbs_runtime/_resources.py',
   'PYMODULE'),
  ('fbs_runtime._source',
   '/home/desktop/tmp/gl/lib/python3.6/site-packages/fbs_runtime/_source.py',
   'PYMODULE'),
  ('pathlib',
   '/home/desktop/opt/python-3.6.8/lib/python3.6/pathlib.py',
   'PYMODULE'),
  ('fbs_runtime._settings',
   '/home/desktop/tmp/gl/lib/python3.6/site-packages/fbs_runtime/_settings.py',
   'PYMODULE'),
  ('fbs_runtime._fbs',
   '/home/desktop/tmp/gl/lib/python3.6/site-packages/fbs_runtime/_fbs.py',
   'PYMODULE'),
  ('fbs_runtime._frozen',
   '/home/desktop/tmp/gl/lib/python3.6/site-packages/fbs_runtime/_frozen.py',
   'PYMODULE'),
  ('fbs_runtime._state',
   '/home/desktop/tmp/gl/lib/python3.6/site-packages/fbs_runtime/_state.py',
   'PYMODULE'),
  ('fbs_runtime',
   '/home/desktop/tmp/gl/lib/python3.6/site-packages/fbs_runtime/__init__.py',
   'PYMODULE'),
  ('PyQt5',
   '/home/desktop/tmp/gl/lib/python3.6/site-packages/PyQt5/__init__.py',
   'PYMODULE'),
  ('os', '/home/desktop/tmp/gl/lib/python3.6/os.py', 'PYMODULE')])
